%YAML 1.1
%TAG !u! tag:unity3d.com,2011:
--- !u!114 &11400000
MonoBehaviour:
  m_ObjectHideFlags: 0
  m_CorrespondingSourceObject: {fileID: 0}
  m_PrefabInstance: {fileID: 0}
  m_PrefabAsset: {fileID: 0}
  m_GameObject: {fileID: 0}
  m_Enabled: 1
  m_EditorHideFlags: 0
  m_Script: {fileID: 11500000, guid: 957d6a8ce2904831b9b632c4b84fb3fa, type: 3}
  m_Name: Platform 3
  m_EditorClassIdentifier: 
  health: 5
  armor: 5
  type: 3
  activeAbility: {fileID: 11400000, guid: a2d25d9477a1169499fcaecbc7d0a57b, type: 2}
  platformSprite: {fileID: 21300000, guid: f2cdbbb50f0ac89449ca380be2c7552f, type: 3}
