%YAML 1.1
%TAG !u! tag:unity3d.com,2011:
--- !u!114 &11400000
MonoBehaviour:
  m_ObjectHideFlags: 0
  m_CorrespondingSourceObject: {fileID: 0}
  m_PrefabInstance: {fileID: 0}
  m_PrefabAsset: {fileID: 0}
  m_GameObject: {fileID: 0}
  m_Enabled: 1
  m_EditorHideFlags: 0
  m_Script: {fileID: 11500000, guid: 9dfd1291cf3c447fbb31a604d07fa12a, type: 3}
  m_Name: CellDamage
  m_EditorClassIdentifier: 
  Type: 0
  Cooldown: 3
  AbilitySprite: {fileID: 21300000, guid: 95b48baa944fc21468ca14d5462368d7, type: 3}
  Damage: 10
